{
    "AWSEBDockerrunVersion": 2,
    "containerDefinitions": [
        {
            "name": "mdcp-ss-admin",
            "image": "698117319176.dkr.ecr.us-east-1.amazonaws.com/mdcp-ss-admin-eb:latest",
            "essential": true,
            "memory": 1250,
            "portMappings": [
                {
                    "hostPort": 80,
                    "containerPort": 3000
                }
            ],
            "Logging": "/var/log/nginx"
        }
    ]
}